{
  "files": {
    "main.css": "/static/css/main.d1b05096.chunk.css",
    "main.js": "/static/js/main.5164fe86.chunk.js",
    "main.js.map": "/static/js/main.5164fe86.chunk.js.map",
    "runtime-main.js": "/static/js/runtime-main.5322ff44.js",
    "runtime-main.js.map": "/static/js/runtime-main.5322ff44.js.map",
    "static/js/2.1803bae9.chunk.js": "/static/js/2.1803bae9.chunk.js",
    "static/js/2.1803bae9.chunk.js.map": "/static/js/2.1803bae9.chunk.js.map",
    "static/js/3.21256bae.chunk.js": "/static/js/3.21256bae.chunk.js",
    "static/js/3.21256bae.chunk.js.map": "/static/js/3.21256bae.chunk.js.map",
    "static/js/4.62c7e2d0.chunk.js": "/static/js/4.62c7e2d0.chunk.js",
    "static/js/4.62c7e2d0.chunk.js.map": "/static/js/4.62c7e2d0.chunk.js.map",
    "index.html": "/index.html",
    "precache-manifest.eb5c2829180e4a21fa8011411762b667.js": "/precache-manifest.eb5c2829180e4a21fa8011411762b667.js",
    "service-worker.js": "/service-worker.js",
    "static/css/main.d1b05096.chunk.css.map": "/static/css/main.d1b05096.chunk.css.map",
    "static/js/2.1803bae9.chunk.js.LICENSE.txt": "/static/js/2.1803bae9.chunk.js.LICENSE.txt"
  },
  "entrypoints": [
    "static/js/runtime-main.5322ff44.js",
    "static/js/2.1803bae9.chunk.js",
    "static/css/main.d1b05096.chunk.css",
    "static/js/main.5164fe86.chunk.js"
  ]
}