<svg xmlns="http://www.w3.org/2000/svg" width="64.762" height="54.641" viewBox="0 0 64.762 54.641">
  <g id="Group_769" data-name="Group 769" transform="translate(-927.5 -160.859)">
    <g id="Group_762" data-name="Group 762" transform="translate(14)">
      <g id="user" transform="translate(911 171.331)">
        <path id="Path_6335" data-name="Path 6335" d="M30.446,14.754c0,7.346-4.408,13.223-8.815,13.223S12.815,22.1,12.815,14.754,15.754,3,21.631,3,30.446,7.408,30.446,14.754ZM4,42.669H39.262c0-13.223-8.815-14.692-17.631-14.692S4,29.446,4,42.669Z" fill="none" stroke="#1cd390" stroke-linecap="round" stroke-linejoin="round" stroke-width="3"/>
      </g>
      <g id="user-2" data-name="user" transform="translate(951.104 186.073)" opacity="0.484">
        <path id="Path_6335-2" data-name="Path 6335" d="M20.618,10.386c0,4.616-2.77,8.309-5.539,8.309S9.539,15,9.539,10.386,11.386,3,15.079,3,20.618,5.77,20.618,10.386ZM4,27.927H26.157c0-8.309-5.539-9.232-11.079-9.232S4,19.618,4,27.927Z" fill="none" stroke="#1cd390" stroke-linecap="round" stroke-linejoin="round" stroke-width="2"/>
      </g>
    </g>
    <g id="plus" transform="translate(960.025 160.859)">
      <g id="Group_764" data-name="Group 764" transform="translate(-0.025)">
        <g id="Group_763" data-name="Group 763">
          <path id="Path_6336" data-name="Path 6336" d="M9.064,18.141A8.972,8.972,0,0,1,2.639,15.5a9.079,9.079,0,0,1,0-12.85A8.972,8.972,0,0,1,9.064,0a8.972,8.972,0,0,1,6.425,2.646,9.079,9.079,0,0,1,0,12.85A8.972,8.972,0,0,1,9.064,18.141Zm0-16.629A7.481,7.481,0,0,0,3.7,3.7a7.619,7.619,0,0,0,0,10.733,7.481,7.481,0,0,0,5.367,2.192,7.521,7.521,0,0,0,5.367-12.85A7.256,7.256,0,0,0,9.064,1.512Z" transform="translate(0.025)" fill="#1cd390"/>
        </g>
      </g>
      <g id="Group_766" data-name="Group 766" transform="translate(8.309 4.535)">
        <g id="Group_765" data-name="Group 765">
          <path id="Path_6337" data-name="Path 6337" d="M11.756,15.071A.714.714,0,0,1,11,14.315V6.756a.756.756,0,0,1,1.512,0v7.559A.714.714,0,0,1,11.756,15.071Z" transform="translate(-11 -6)" fill="#1cd390"/>
        </g>
      </g>
      <g id="Group_768" data-name="Group 768" transform="translate(4.529 8.315)">
        <g id="Group_767" data-name="Group 767">
          <path id="Path_6338" data-name="Path 6338" d="M14.315,12.512H6.756a.756.756,0,0,1,0-1.512h7.559a.756.756,0,1,1,0,1.512Z" transform="translate(-6 -11)" fill="#1cd390"/>
        </g>
      </g>
    </g>
  </g>
</svg>
