<svg xmlns="http://www.w3.org/2000/svg" width="42" height="42" viewBox="0 0 42 42">
  <g id="delete_ico" data-name="delete ico" transform="translate(-1225 -650)">
    <circle id="Ellipse_11" data-name="Ellipse 11" cx="21" cy="21" r="21" transform="translate(1225 650)" fill="#eceef0"/>
    <g id="bin" transform="translate(1237 659.514)">
      <g id="Group_671" data-name="Group 671" transform="translate(4.303)">
        <g id="Group_670" data-name="Group 670">
          <path id="Path_6205" data-name="Path 6205" d="M8.721,2.582H7A2.536,2.536,0,0,1,9.582,0V1.721A.813.813,0,0,0,8.721,2.582Z" transform="translate(-7)" fill="#252a43"/>
        </g>
      </g>
      <g id="Group_673" data-name="Group 673" transform="translate(10.328)">
        <g id="Group_672" data-name="Group 672">
          <path id="Path_6206" data-name="Path 6206" d="M16.582,2.582H14.861A.813.813,0,0,0,14,1.721V0A2.536,2.536,0,0,1,16.582,2.582Z" transform="translate(-14)" fill="#252a43"/>
        </g>
      </g>
      <g id="Group_675" data-name="Group 675" transform="translate(4.303 2.582)">
        <g id="Group_674" data-name="Group 674">
          <path id="Path_6207" data-name="Path 6207" d="M15.606,5.582H7V3H8.721v.861h5.164V3h1.721Z" transform="translate(-7 -3)" fill="#252a43"/>
        </g>
      </g>
      <g id="Group_677" data-name="Group 677" transform="translate(6.885)">
        <g id="Group_676" data-name="Group 676">
          <rect id="Rectangle_377" data-name="Rectangle 377" width="3.443" height="1.721" fill="#252a43"/>
        </g>
      </g>
      <g id="Group_679" data-name="Group 679" transform="translate(0 3.443)">
        <g id="Group_678" data-name="Group 678">
          <path id="Path_6208" data-name="Path 6208" d="M18.352,5.721H2.861A.813.813,0,0,1,2,4.861.813.813,0,0,1,2.861,4H18.352a.813.813,0,0,1,.861.861A.813.813,0,0,1,18.352,5.721Z" transform="translate(-2 -4)" fill="#252a43"/>
        </g>
      </g>
      <g id="Group_681" data-name="Group 681" transform="translate(1.721 6.885)">
        <g id="Group_680" data-name="Group 680">
          <path id="Path_6209" data-name="Path 6209" d="M16.909,21.77H4.861A.813.813,0,0,1,4,20.909V8.861A.813.813,0,0,1,4.861,8H16.909a.813.813,0,0,1,.861.861V20.909A.813.813,0,0,1,16.909,21.77ZM5.721,20.049H16.049V9.721H5.721Z" transform="translate(-4 -8)" fill="#252a43"/>
        </g>
      </g>
      <g id="Group_683" data-name="Group 683" transform="translate(6.024 10.328)">
        <g id="Group_682" data-name="Group 682">
          <path id="Path_6210" data-name="Path 6210" d="M9.861,18.885A.813.813,0,0,1,9,18.024V12.861a.861.861,0,0,1,1.721,0v5.164A.813.813,0,0,1,9.861,18.885Z" transform="translate(-9 -12)" fill="#252a43"/>
        </g>
      </g>
      <g id="Group_685" data-name="Group 685" transform="translate(9.467 10.328)">
        <g id="Group_684" data-name="Group 684">
          <path id="Path_6211" data-name="Path 6211" d="M13.861,18.885A.813.813,0,0,1,13,18.024V12.861a.861.861,0,1,1,1.721,0v5.164A.813.813,0,0,1,13.861,18.885Z" transform="translate(-13 -12)" fill="#252a43"/>
        </g>
      </g>
    </g>
  </g>
</svg>
