{
	"info": {
		"_postman_id": "ca8623c1-7472-4be4-bfa6-0a1f03074bc2",
		"name": "MediCare",
		"schema": "https://schema.getpostman.com/json/collection/v2.1.0/collection.json"
	},
	"item": [
		{
			"name": "Auth",
			"item": [
				{
					"name": "Login",
					"request": {
						"method": "POST",
						"header": [],
						"body": {
							"mode": "urlencoded",
							"urlencoded": [
								{
									"key": "username",
									"value": "mdilshan391@gmail.com",
									"type": "text"
								},
								{
									"key": "password",
									"value": "1234",
									"type": "text"
								}
							]
						},
						"url": {
							"raw": "{{apiUrl}}/auth/login",
							"host": [
								"{{apiUrl}}"
							],
							"path": [
								"auth",
								"login"
							]
						}
					},
					"response": []
				},
				{
					"name": "Register",
					"request": {
						"method": "POST",
						"header": [
							{
								"key": "Authorization",
								"value": "Bearer {{token}}",
								"type": "text",
								"disabled": true
							}
						],
						"body": {
							"mode": "urlencoded",
							"urlencoded": [
								{
									"key": "username",
									"value": "mdilshan21@gmail.com",
									"type": "text"
								},
								{
									"key": "password",
									"value": "1234",
									"type": "text"
								},
								{
									"key": "role",
									"value": "cashier",
									"type": "text"
								}
							]
						},
						"url": {
							"raw": "http://localhost:8080/MediCare/api/auth/register",
							"protocol": "http",
							"host": [
								"localhost"
							],
							"port": "8080",
							"path": [
								"MediCare",
								"api",
								"auth",
								"register"
							],
							"query": [
								{
									"key": "username",
									"value": "mdilshan21@gmail.com",
									"disabled": true
								}
							]
						}
					},
					"response": []
				},
				{
					"name": "verify",
					"request": {
						"method": "GET",
						"header": [
							{
								"key": "Authorization",
								"value": "Bearer {{token}}",
								"type": "text"
							}
						],
						"url": {
							"raw": "http://localhost:8080/MediCare/api/hello",
							"protocol": "http",
							"host": [
								"localhost"
							],
							"port": "8080",
							"path": [
								"MediCare",
								"api",
								"hello"
							]
						}
					},
					"response": []
				}
			],
			"protocolProfileBehavior": {}
		},
		{
			"name": "Payment",
			"item": [
				{
					"name": "Add Payment",
					"request": {
						"method": "POST",
						"header": [
							{
								"key": "Authorization",
								"value": "Bearer {{token}}",
								"type": "text"
							}
						],
						"body": {
							"mode": "raw",
							"raw": "{\n\t\"id\" : 23,\n\t\"cust_id\" : 1,\n\t\"dct_id\" : 1,\n\t\"service\" : \"asdbasnd\",\n\t\"cost\" : \"5000\",\n\t\"discount\" : \"40\",\n\t\"type\" : \"xy\"\n}",
							"options": {
								"raw": {
									"language": "json"
								}
							}
						},
						"url": {
							"raw": "{{apiUrl}}/payment",
							"host": [
								"{{apiUrl}}"
							],
							"path": [
								"payment"
							]
						}
					},
					"response": []
				},
				{
					"name": "Delete payment",
					"request": {
						"method": "DELETE",
						"header": [
							{
								"key": "Authorization",
								"type": "text",
								"value": "Bearer {{token}}"
							}
						],
						"body": {
							"mode": "raw",
							"raw": "",
							"options": {
								"raw": {
									"language": "json"
								}
							}
						},
						"url": {
							"raw": "{{apiUrl}}/payment/1",
							"host": [
								"{{apiUrl}}"
							],
							"path": [
								"payment",
								"1"
							]
						}
					},
					"response": []
				},
				{
					"name": "Edit a payment",
					"request": {
						"method": "PUT",
						"header": [
							{
								"key": "Authorization",
								"value": "Bearer {{token}}",
								"type": "text"
							}
						],
						"body": {
							"mode": "raw",
							"raw": "{\n\t\"id\" : 23,\n\t\"cust_id\" : 1,\n\t\"dct_id\" : 1,\n\t\"service\" : \"updated\",\n\t\"cost\" : \"5000\",\n\t\"discount\" : \"40\",\n\t\"type\" : \"xxxxx\"\n}",
							"options": {
								"raw": {
									"language": "json"
								}
							}
						},
						"url": {
							"raw": "{{apiUrl}}/payment/1",
							"host": [
								"{{apiUrl}}"
							],
							"path": [
								"payment",
								"1"
							]
						}
					},
					"response": []
				},
				{
					"name": "Get payment list",
					"protocolProfileBehavior": {
						"disableBodyPruning": true
					},
					"request": {
						"method": "GET",
						"header": [
							{
								"key": "Authorization",
								"value": "Bearer {{token}}",
								"type": "text"
							}
						],
						"body": {
							"mode": "raw",
							"raw": "",
							"options": {
								"raw": {
									"language": "json"
								}
							}
						},
						"url": {
							"raw": "{{apiUrl}}/payment?limit=1&skip=1",
							"host": [
								"{{apiUrl}}"
							],
							"path": [
								"payment"
							],
							"query": [
								{
									"key": "limit",
									"value": "1"
								},
								{
									"key": "skip",
									"value": "1"
								}
							]
						}
					},
					"response": []
				},
				{
					"name": "Get Docotrs",
					"protocolProfileBehavior": {
						"disableBodyPruning": true
					},
					"request": {
						"method": "GET",
						"header": [
							{
								"key": "Authorization",
								"type": "text",
								"value": "Bearer {{token}}"
							}
						],
						"body": {
							"mode": "raw",
							"raw": "",
							"options": {
								"raw": {
									"language": "json"
								}
							}
						},
						"url": {
							"raw": "{{apiUrl}}/doctors",
							"host": [
								"{{apiUrl}}"
							],
							"path": [
								"doctors"
							]
						}
					},
					"response": []
				},
				{
					"name": "Get customers",
					"protocolProfileBehavior": {
						"disableBodyPruning": true
					},
					"request": {
						"method": "GET",
						"header": [
							{
								"key": "Authorization",
								"type": "text",
								"value": "Bearer {{token}}"
							}
						],
						"body": {
							"mode": "raw",
							"raw": "",
							"options": {
								"raw": {
									"language": "json"
								}
							}
						},
						"url": {
							"raw": "{{apiUrl}}/customers",
							"host": [
								"{{apiUrl}}"
							],
							"path": [
								"customers"
							]
						}
					},
					"response": []
				},
				{
					"name": "Get One Payment",
					"protocolProfileBehavior": {
						"disableBodyPruning": true
					},
					"request": {
						"method": "GET",
						"header": [
							{
								"key": "Authorization",
								"type": "text",
								"value": "Bearer {{token}}"
							}
						],
						"body": {
							"mode": "raw",
							"raw": "",
							"options": {
								"raw": {
									"language": "json"
								}
							}
						},
						"url": {
							"raw": "{{apiUrl}}/payment/1",
							"host": [
								"{{apiUrl}}"
							],
							"path": [
								"payment",
								"1"
							]
						}
					},
					"response": []
				}
			],
			"protocolProfileBehavior": {}
		}
	],
	"protocolProfileBehavior": {}
}